C:\work\software\netbeans\testdbconnection\src\main\java\com\celestial\testdbconnection\DBConnector.java
C:\work\software\netbeans\testdbconnection\src\main\java\com\celestial\testdbconnection\PropertyLoader.java
C:\work\software\netbeans\testdbconnection\src\main\java\com\celestial\testdbconnection\MainUnit.java
C:\work\software\netbeans\testdbconnection\src\main\java\com\celestial\testdbconnection\LoggerExample.java
